x1,x4,x7,x9,x2,x3,x5,x6,x8,x10,x11
1,1,0,1,0,0,0,0,0,0,0
1,0,0,0,0,0,0,0,0,0,0
1,0,1,1,0,0,0,0,0,0,0
1,1,0,0,0,0,0,0,0,0,0
0,1,0,0,0,0,0,0,0,0,0
1,0,0,1,0,0,0,0,0,0,0
0,1,1,1,0,0,0,0,0,0,0
0,1,1,0,0,0,0,0,0,0,0
0,1,0,1,0,0,0,0,0,0,0
0,0,1,1,0,0,0,0,0,0,0
0,0,1,0,0,0,0,0,0,0,0
1,1,1,0,0,0,0,0,0,0,0
1,0,1,0,0,0,0,0,0,0,0
0,0,0,0,0,0,0,0,0,0,0
0,0,0,1,0,0,0,0,0,0,0
1,1,1,1,0,0,0,0,0,0,0
0,0,0,0,0,0,0,0,0,0,0
0,1,0,1,0,0,0,0,0,0,0
1,0,0,1,0,0,0,0,0,0,0
0,1,1,1,0,0,0,0,0,0,0
1,1,1,0,0,0,0,0,0,0,0
0,1,1,0,0,0,0,0,0,0,0
1,0,1,1,0,0,0,0,0,0,0
1,1,0,1,0,0,0,0,0,0,0
1,0,1,0,0,0,0,0,0,0,0
1,0,0,0,0,0,0,0,0,0,0
0,0,1,0,0,0,0,0,0,0,0
1,1,0,0,0,0,0,0,0,0,0
1,1,1,1,0,0,0,0,0,0,0
0,1,0,0,0,0,0,0,0,0,0
0,0,0,1,0,0,0,0,0,0,0
0,0,1,1,0,0,0,0,0,0,0
