x1,x2,x3,x4,x5,x6,x7,x8,x9,x10,x11
0.521323332964675,0.463462552300771,0.662832177630626,0.462461185731227,0.521925180603284,0.306610195750836,0.490021197086899,0.466981425699196,0.701571816312498,0.523646971695707,0.469282760926872
0.595827934645931,0.563700255264412,0.400839233532897,0.475946267494583,0.262519808560028,0.494096233356395,0.557228307340993,0.451851304542506,0.384619237841107,0.448151855852921,0.397533281051437
0.452243501134217,0.446997345531709,0.4804414438596,0.68114379661507,0.590192822444951,0.383631882299087,0.726907382600475,0.440248476410634,0.436374000750948,0.34851809755608,0.723517413429799
0.527855005094898,0.545758893791353,0.418574837077176,0.632017219993868,0.630566875436925,0.279325426885043,0.544109920262126,0.502900197111303,0.419145273737377,0.465325760880369,0.352607056523557
0.243272041844903,0.516909491249826,0.464967781344894,0.358869335586787,0.609394920007326,0.515172514770529,0.465172780302819,0.476062491888879,0.637109464803943,0.623108681377489,0.508952848554472
0.534664220523555,0.613031312155072,0.475687740228022,0.6080715180689,0.759602738697431,0.597155895854812,0.648850773463491,0.386066391794011,0.493571237089345,0.382623309724149,0.679471597450902
0.310549171773018,0.667223881790997,0.635539089148515,0.519894974773051,0.504575007173116,0.300354574907687,0.312330046775169,0.759358923000982,0.463398524339427,0.672947199094342,0.465570624926477
0.693007490948075,0.458136841567466,0.434182230649167,0.343714715151,0.506250063919579,0.400635943014058,0.426873416951275,0.673989434280084,0.61213608031976,0.397843973059789,0.29932911459473
0.638777923496091,0.544568983235513,0.332728006242542,0.376062772174482,0.414907281257911,0.368698681953829,0.699904145112378,0.397762705237838,0.809226860088529,0.33938999682141,0.504422799225431
0.387179937678738,0.356917405741988,0.46657444643788,0.703979256502935,0.33738336305134,0.431702101304545,0.298294945075177,0.410588140671025,0.239948063674965,0.527324829076533,0.486721600871533
0.688303021669271,0.251919823411154,0.550891162796761,0.354055705221253,0.522510813613771,0.576952122754301,0.729452951647108,0.253910104991519,0.365753794132615,0.503187797260471,0.519486441318295
0.47128340136609,0.574115682313568,0.272466653524898,0.686452817333629,0.470906098686974,0.542434387154644,0.7596499432571,0.58472408194968,0.310716407566215,0.370238670430263,0.548525836406625
0.484358068895526,0.347428379342891,0.600591012252262,0.416329952678061,0.450291547701345,0.35916615119495,0.612876676070737,0.415768428309821,0.5628166549257,0.23440590645303,0.384785752680036
0.399023881271132,0.470135846040794,0.606397969794925,0.397914851154201,0.716545589041198,0.286646017406019,0.603380417401786,0.628748502225499,0.6557744443306,0.553558675808599,0.315291528881062
0.431001874582144,0.282679962429102,0.723737606324721,0.340435636858456,0.750997537265066,0.697198637388065,0.497259446801036,0.486473446367891,0.403985913024517,0.413959494970622,0.682235288483207
0.486451579403947,0.561412276747869,0.382382994895452,0.52560876731528,0.605243649753393,0.335585041120066,0.385916189001873,0.315654613071238,0.432972400282742,0.429716790939565,0.760411323051085
0.413414517506608,0.69826451638015,0.428627591485274,0.382608077756013,0.73931951257633,0.725503143481328,0.371696136086248,0.547873812115286,0.666100770872436,0.453943738067755,0.545602875959012
0.615568652752554,0.776956855933531,0.681147618390387,0.380577610720065,0.433975094438065,0.502870258806506,0.283339737155475,0.380282743466087,0.500852469339152,0.252293017882621,0.37018017333583
0.302392006172449,0.398241152020637,0.607691429635161,0.577103573097265,0.714717505154549,0.44538996784715,0.754538913118304,0.527042070236057,0.425939395573805,0.575062584217521,0.632479109670967
0.371376225485001,0.499690430554328,0.511407122229575,0.513692137704929,0.358189598569879,0.788942329388228,0.783190440760227,0.256599445629981,0.74124118918844,0.315946099078283,0.502069130753516
0.812092832118506,0.488744564957451,0.411969059420517,0.64476003048243,0.169279368364951,0.653344617907423,0.494297887883149,0.37034189247468,0.724177188465255,0.296847018350963,0.589967875360744
0.24769715348375,0.486181949395686,0.2395697827806,0.542896732549998,0.753837574037025,0.31049226755742,0.275480689926771,0.808800024150987,0.308336057181004,0.810318420968833,0.640250918644597
0.624281873549917,0.707405636119074,0.533403866117587,0.442512260403601,0.568714277136605,0.530141541520134,0.68607152739889,0.77057137194206,0.533797694894602,0.725324501056457,0.488741589282872
0.538290609238902,0.388278831152129,0.383261868023546,0.804461855633999,0.419809160277364,0.60629615061509,0.271153810762335,0.66830251883599,0.720402096644975,0.80795790891978,0.706376390982186
0.458763226189767,0.751002370659262,0.767218003224698,0.256995004070341,0.2257099407434,0.599772118662368,0.431601522905403,0.384993536587572,0.333638866833644,0.600262277673464,0.689604040391278
0.579901163579198,0.359034235560684,0.615897104546311,0.659699898453546,0.431420617650729,0.632821696561878,0.514634157581604,0.736557734535891,0.272699406039901,0.442365529393428,0.536662971163751
0.228414364539785,0.303560671105515,0.48796328194323,0.21376768853399,0.836797455370543,0.408967551639071,0.624841307351598,0.460553285728092,0.799243751446484,0.611619972125045,0.573092000102042
0.749317838146235,0.386981779368944,0.637912126321462,0.414184990467038,0.360219030680018,0.669905441680457,0.462768549422035,0.430811901051202,0.706374581336859,0.625980989696109,0.32110558206623
0.461176082397578,0.626660740233492,0.454059433104121,0.250146561590955,0.581354131278349,0.361988547721412,0.762249438369181,0.568409850968747,0.592558803528664,0.280079420573893,0.747486559167737
0.324425009566476,0.768470605194452,0.502047389718937,0.326223024799256,0.313423683840083,0.307956953114481,0.274713976989151,0.209071662846836,0.734454775092308,0.532124512878945,0.381969139737776
0.204582383737434,0.672478865752928,0.469700327487662,0.726703587277443,0.30844498165301,0.135440980391577,0.507292828439386,0.238355847931234,0.570856189779588,0.364597123742569,0.340992560173036
0.492348173617502,0.252775971966912,0.375348573196679,0.31233998212032,0.268191109922482,0.372091982882703,0.476666597435833,0.472355960447458,0.428341261536116,0.495871100325603,0.188748482939554
0.119030374673312,0.342422394452733,0.28328692764102,0.300991182614234,0.410151651566848,0.549653067695326,0.116523122575018,0.491791297062882,0.756235035106074,0.692330739872414,0.626954163362971
0.255229891666677,0.81396524083335,0.74199598074134,0.791417983703432,0.682339687917265,0.44034591184638,0.392077677783673,0.594236147437477,0.317203504548525,0.461695981259691,0.425786841816735
0.403754440079792,0.652089991862304,0.288131855232641,0.511333542837529,0.745829388968996,0.683752465068828,0.20378510305658,0.179141995125683,0.782790319487685,0.152152406376554,0.779334463427658
0.387518735106569,0.83919773288304,0.612631473079673,0.545459794587223,0.600571497568162,0.857234511846327,0.740370479096891,0.838720379549777,0.482022914486006,0.366109560785699,0.359162334613502
0.283442884352989,0.433576685073203,0.505470381702762,0.709559765414451,0.723329868563451,0.372746101623634,0.239658194704098,0.786658059757319,0.42200578282529,0.396851819431759,0.781789717883803
0.775947064715438,0.48443760027294,0.558967545424821,0.32426356993441,0.701827882431098,0.600038096376229,0.666318661695113,0.658042982236948,0.24453049582371,0.660218333956436,0.121628624309669
0.740337438804563,0.577152769266977,0.66872412172379,0.273177827389445,0.363180777236121,0.771890667530242,0.589252334834891,0.729437075055321,0.448876530952402,0.163037161604734,0.833762750662863
0.841739210762316,0.62002501447103,0.863243333873688,0.360091077353572,0.332427437411388,0.748151648945641,0.820159129948006,0.128423336002161,0.662907491154037,0.254417574416148,0.267126931347302
0.18426610306371,0.428883664881578,0.757023614986101,0.63541484917514,0.604542041390669,0.354277995409793,0.415653094830341,0.244258883431321,0.280072660879232,0.606866172977607,0.312091816896573
0.591805822753231,0.211686694053933,0.472520540384576,0.805088455367368,0.885199436972616,0.477536175253335,0.735527160826605,0.723187687412137,0.323431052586529,0.321324098313344,0.690658048096229
0.142509264943073,0.163321807764005,0.422390739925904,0.472003791729221,0.441539405417861,0.70787716902094,0.436238278731471,0.152127056625322,0.376204694705084,0.648462070276146,0.564606142563862
0.331173979635932,0.190001306724735,0.187949473019689,0.64992312227143,0.795270681300899,0.375495380444336,0.216982050281949,0.667351384361391,0.715200791737298,0.228540084412671,0.543898475475144
0.710910848004278,0.393434258265188,0.825665813992964,0.800238891325425,0.28569216996897,0.249936015992425,0.294762853404973,0.392118742960156,0.406920323813683,0.818846477110637,0.695343471152009
0.278228267244995,0.133060872835922,0.360623971244204,0.33615896641335,0.664854145601275,0.421403970907559,0.168917493092595,0.73050700118125,0.646589602491004,0.688847859470989,0.223461687443778
0.715577967652935,0.492651699611451,0.32482118552085,0.695130189681659,0.388484105857206,0.765419827558799,0.553320645092172,0.480997240738943,0.359557073828182,0.614854759560549,0.855685839268262
0.617881122444524,0.233668514459277,0.598844899043906,0.347475104830228,0.435934342110995,0.660683170096599,0.838402475888724,0.449398376937024,0.582140851764125,0.775327694132575,0.741183182875975
0.583777283535455,0.294242071823101,0.235405086494866,0.474206811512122,0.495007970803999,0.845536749591702,0.481771905515343,0.640617615372175,0.689497172459378,0.901813977030106,0.430006840704009
0.532202581802267,0.860604055125732,0.625343770069303,0.634124337902176,0.563099527007434,0.460365704782307,0.790441734918277,0.348374470453127,0.707565641769324,0.707025708190631,0.90853522531921
0.793232135249418,0.736434340130654,0.627859705878654,0.356444433988654,0.862409280139837,0.51436177540978,0.34789858778473,0.701365582665894,0.790050255488604,0.847388321559993,0.191443083633203
0.604266849195701,0.53378292014706,0.747642116575735,0.50831991659943,0.196875464995392,0.235146965956083,0.779410894074244,0.869360970769194,0.538867889132816,0.500727222970454,0.676627866894705
0.7789283226931,0.520589841463952,0.797101903177099,0.653331540363142,0.27740167477401,0.663769222555566,0.336305360649712,0.213893111004145,0.248058952183928,0.272997616635403,0.578417601565598
0.509396388781024,0.185946064796299,0.513763781950111,0.441237521843286,0.779442970789969,0.188352702045813,0.440749593933579,0.341708601172431,0.278161816743086,0.37696519677469,0.459636225810391
0.40124869776133,0.42331122811418,0.430774919650285,0.64672994707129,0.201043839530903,0.451101400692132,0.329796501886449,0.293086175724748,0.727481318550999,0.722723570349044,0.0688108433579327
0.56085355267569,0.623343805595068,0.752800470207585,0.889503568637301,0.574742461118731,0.527881902930094,0.731260800812743,0.565667276938912,0.659492471300182,0.533707845840836,0.423127142012818
0.189906557875802,0.680678443405777,0.352165165250772,0.664155212924816,0.529274715647916,0.560360055244528,0.573760168929584,0.321743867268669,0.231317667998956,0.420722473615897,0.766874360025977
0.146614206960658,0.473687734187115,0.504015092691407,0.668534614471719,0.399656263906509,0.491149202866363,0.677562071655993,0.777494142155047,0.456741347802454,0.77059080087638,0.480020809481502
0.863923529188032,0.782464086200926,0.122979827095405,0.505759326388943,0.691351838402916,0.506162855912698,0.780544919621316,0.455174111272208,0.492098433810752,0.431289312410518,0.634106519099441
0.341563751204521,0.701018755466212,0.872436363357701,0.429646805551602,0.415299415788613,0.230695297584753,0.701942417913233,0.407988498531049,0.483647147109732,0.882323932923027,0.239249503443716
0.759532258538529,0.354687887721811,0.560206884451327,0.521811417876161,0.316145984625327,0.245462289188872,0.314777036127052,0.498638662775629,0.556669011639315,0.391613806633977,0.654503384241252
0.752310067836079,0.324358957514633,0.210119088562205,0.390406609774218,0.911785740138148,0.812164746502531,0.460644619007944,0.24057214546483,0.586998930501286,0.602783819318865,0.209126624040073
0.373799714887864,0.760905723145697,0.119441749062389,0.27183157259482,0.421215561266872,0.583259747713455,0.268860733658657,0.672188214111957,0.265404876205139,0.291748639221769,0.68576572854945
0.0390800495183794,0.656746660184581,0.447737454162561,0.0995448226504959,0.657145153873717,0.588734313970199,0.569698971367325,0.626126917793881,0.676134846855421,0.183881093333475,0.182226499514654
0.764559062424232,0.207643970154459,0.346872112265555,0.491411740888725,0.871277761824313,0.521015629879548,0.341164750263561,0.805782866615336,0.897655528636533,0.566455459816498,0.599259191986057
0.915543160776724,0.183155301653314,0.23491525541991,0.401101515452028,0.460859649873455,0.705989424554864,0.205568793526036,0.89124430880358,0.300897539874422,0.550153412910877,0.378872367829899
0.551030523917289,0.738938017720357,0.567093348070048,0.321361242721905,0.141675521489815,0.164890478040907,0.608107958150213,0.396841792491032,0.135265052132891,0.298259348198771,0.277649016656796
0.282431516377837,0.435843188013532,0.543069684249931,0.261730764799286,0.283283359698835,0.889241672221106,0.288817665242241,0.433467968264595,0.509854147178121,0.307760855121305,0.699102570777177
0.674347513083485,0.442245545670739,0.587806573224952,0.149969845691812,0.791094911282416,0.406945873040822,0.515527870581718,0.515515464484342,0.772592369782506,0.730447469883366,0.879355365015217
0.442568961562938,0.638906194213778,0.659751203162596,0.552595966332592,0.667419744507642,0.645355715720798,0.179631474651396,0.204040735439048,0.650758749725064,0.662738910293556,0.684717845394625
0.504805003674119,0.523266130682896,0.134866755857365,0.418996810499229,0.846028099516989,0.196238179579959,0.591762766105239,0.848144098211778,0.503523112798575,0.435665301588015,0.55964905017172
0.206628994190833,0.314511252606171,0.648372627020581,0.539428416010342,0.445065773181268,0.29120697170496,0.196217274413211,0.541679715571227,0.349425804167404,0.019724407143658,0.473458965744358
0.671007658516173,0.770701835185755,0.497866752702394,0.560285693873884,0.539210219061933,0.802660486745299,0.621746878488921,0.227407147408812,0.397325669782585,0.813158125629416,0.472231402968755
0.160624576450791,0.747418809080846,0.797530620012549,0.498534680201556,0.370345542861614,0.628485150302295,0.635309761134558,0.401837640485028,0.771767302632215,0.520913894785335,0.38626391588652
0.544455562991789,0.921517048970563,0.332027083102148,0.807613099204609,0.332709634760977,0.632319866935723,0.520505292930757,0.353090386229451,0.760255048468243,0.170988280785969,0.275619213810423
0.787460752209299,0.176224232911481,0.552615618752316,0.700085472111241,0.831701550133876,0.728293878852273,0.323647435184102,0.488002733174944,0.220002874830388,0.763971319816774,0.269945965979132
0.653486768700532,0.832571189211449,0.690122303595417,0.257626022972981,0.687235791553976,0.259189622246195,0.722346047129249,0.394070875339094,0.673582637297222,0.464644911205978,0.290446929848404
0.442296653430094,0.518383527289261,0.954525858570123,0.896954074370442,0.367243061879417,0.895920621036785,0.409829845744534,0.720061185011873,0.290713676685118,0.401036132450099,0.666659572680946
0.326864431395661,0.410714838188724,0.700239306801814,0.277809175987495,0.232758352939854,0.115300943664624,0.377064417898655,0.556443965553772,0.314679797729477,0.563366989194765,0.575652724203537
0.455456479420536,0.321240832619369,0.592717746541603,0.640571091240854,0.145774991943617,0.434644895044621,0.796395399906323,0.174311344965245,0.138871609718772,0.666038583349437,0.160378678462002
0.660851313321036,0.570801050575683,0.169445533034159,0.548045746406424,0.128754963309038,0.27225050234294,0.281875046652276,0.345814672276028,0.304770624629455,0.556198130776756,0.138974494928261
0.816761802162509,0.716956931492896,0.646840000572265,0.793190009515965,0.898485306871007,0.716813906833995,0.967272678865702,0.193361054771813,0.251979199024499,0.355407556481077,0.197988297261181
0.236599324847339,0.807990619211923,0.326940780685982,0.0667084983736277,0.547796028873417,0.129510224139085,0.16566031861119,0.439481280462933,0.4896158531931,0.434948240232188,0.570711217366625
0.814173968686373,0.247335313697113,0.569185526571819,0.691925771142705,0.689282463702257,0.745804984197021,0.118112778991344,0.406561274885898,0.870293069205363,0.32418828632799,0.514544963628869
0.680683699600049,0.194145901293377,0.442527993689291,0.524548583667492,0.597361160599394,0.621750102277729,0.368711192148039,0.836986249256879,0.552711467057816,0.0308716122905025,0.106488432053593
0.35807525567885,0.548356523945113,0.154798793406808,0.449031766008702,0.279808172316407,0.225395149386604,0.52383117372985,0.422497252068715,0.458226137668244,0.476665995673393,0.94971820862731
0.559044592923019,0.85815327146498,0.728199775338871,0.623772144276882,0.649582245234633,0.21852688196348,0.749599569675047,0.36379538882582,0.181408122800058,0.450162530086236,0.704926266973489
0.0944223039713688,0.240499827876338,0.286208202012349,0.85063141554594,0.317723907707259,0.269745417314116,0.422270403793664,0.66442999141058,0.855167692946852,0.215347611978068,0.336162035827292
0.920441822400317,0.504673670054181,0.276380418005283,0.249557825310039,0.550576504184282,0.523297931697452,0.708560409455094,0.766010434527416,0.668859440120286,0.445486782862572,0.0900797890633112
0.285314071148168,0.413392620116938,0.456424207689706,0.78606975335686,0.856268857061514,0.694311332686921,0.694549627728411,0.726324860057794,0.758662923710071,0.831361452449346,0.150001305575133
0.479180343303597,0.288308370345039,0.184920117723523,0.422080382633139,0.576536457092152,0.797191832277458,0.843779482197715,0.523505108112004,0.327489936946076,0.545921043334529,0.184850519325119
0.524652260820731,0.654775002411334,0.472166293546907,0.692722204268212,0.804949516192428,0.389490551478229,0.320897468460025,0.714484867709107,0.381613170222263,0.970508726321277,0.306679683797411
0.481658590961597,0.0972949272592086,0.65354953357717,0.650422374932095,0.25790965895867,0.481906025046483,0.703030755616492,0.265976920201792,0.521263538514031,0.374727911867085,0.612504827033263
0.240047380500473,0.558272840194986,0.0131817444157787,0.590998275578022,0.171090674602892,0.730141450049123,0.662005404194351,0.195494399734307,0.728496955492883,0.493500007897965,0.389971312783891
0.63106034655415,0.236286107139313,0.545602427390986,0.263616081746295,0.914003066192963,0.743704771100893,0.734312297024298,0.601324850140954,0.16355657885375,0.187149123350973,0.496270688182558
0.0908894460980082,0.172194352998631,0.780140870214091,0.612709003599593,0.907931718105683,0.769317821268341,0.378841465722653,0.554375068116933,0.167669141399092,0.693793409097125,0.748974553794251
0.328933895044611,0.37713479444501,0.940074877646984,0.312699306564755,0.486924227199634,0.260736855925061,0.394666885867482,0.586777912024409,0.885767601811676,0.594892028838512,0.39310370145191
0.643358300020336,0.0637678084912477,0.572071616479079,0.572556744754547,0.377168475988437,0.32626002238947,0.0870808698033215,0.133876477406593,0.623406724071247,0.0881888418056769,0.56968468085397
0.297666859125602,0.312038671937771,0.405538587900228,0.930052845230093,0.619359668651014,0.700556489750743,0.354481009758892,0.810883575163316,0.364562325570732,0.513856200182345,0.319840455200756
0.826585121597745,0.741546439828817,0.10845538012858,0.585232733365847,0.556344083126751,0.381443789615296,0.18619135091838,0.308033817302203,0.193101573584136,0.940951424457598,0.725803634042386
0.924755945628858,0.66171170008427,0.185130149723263,0.871034172680229,0.210675066302647,0.641853916386026,0.124773389311158,0.519611147487885,0.39060631664528,0.275163471848937,0.434923681083019
0.368344507386792,0.507493136778939,0.610106839166256,0.730868779227603,0.767781568863429,0.436276698817383,0.808083857605816,0.687694539637305,0.0211930555081926,0.509461373398663,0.411967255771742
0.47494445046701,0.0890765229100361,0.820985395608586,0.131154597295099,0.220249415246071,0.650992032159702,0.190102160945535,0.210105840275064,0.317910340059316,0.618549161941628,0.372869251260418
0.463121501549613,0.443830248064478,0.413445021056687,0.389516393673839,0.401041222811327,0.772754495339468,0.680142404217622,0.763520118482993,0.739600971933687,0.199498477078741,0.507102269392344
0.435327264335938,0.856714480814408,0.676905620940379,0.0702701885125134,0.175460400729789,0.356387760789366,0.695479583586566,0.572422628082568,0.907808204678004,0.230634615182062,0.327560561898863
0.91057341122767,0.285006859715213,0.335735821694252,0.306928839342436,0.383058989398996,0.255695424407022,0.396076947312104,0.574031429221504,0.369836018865462,0.931297832335113,0.60370486491709
0.333837933975738,0.438335845870897,0.515123441987671,0.716877382955863,0.204883660522173,0.55067663543392,0.194348130693543,0.183264312936226,0.440372897691559,0.822950859180419,0.895010114462348
0.818926767091034,0.727195873780292,0.644993349051219,0.492892165572266,0.295111672765925,0.836522356768837,0.617682449514978,0.719823936090688,0.154537573721027,0.571028849062277,0.491658274354413
0.796609320951393,0.593442195599782,0.213468784476863,0.915793631051783,0.579382872822462,0.322111022493336,0.414842568240128,0.32518339615257,0.0742165486101294,0.147460459679714,0.789297373348381
0.220714129252592,0.468593340755906,0.679332452524686,0.104088192488416,0.93814484626113,0.809742610515677,0.267256500273361,0.530998141567106,0.747321511728805,0.19271052358381,0.92523235060391
0.33785657984321,0.15692458072328,0.0575910911418032,0.372810941185453,0.369173316241358,0.288052824774641,0.382680056984536,0.0753863435378298,0.524107799197082,0.852533646951779,0.125820883361739
0.608765215390595,0.724668071655324,0.817305027731345,0.768874275832786,0.132758446240914,0.202185855400166,0.658228761389037,0.41966368905094,0.660681746251648,0.205141418303247,0.23648299135908
0.417797711600433,0.683501072837389,0.251337396244635,0.557778601593454,0.789109604630503,0.486373443827615,0.446580343151581,0.324156616850523,0.558147222193074,0.389255349889281,0.225187851242954
0.935417726848973,0.636118986993097,0.585126926469966,0.727685140662361,0.707132549862144,0.315036763728713,0.140669192462228,0.37446747890499,0.878930354812765,0.767890452744905,0.479428584128618
0.0987202646426158,0.758585449515958,0.379534421396093,0.209854478223715,0.527472023190348,0.754150461598183,0.706133779651136,0.558714420010801,0.629278147078585,0.735080545578967,0.648563792276545
0.768027045791387,0.930602953824564,0.299225887797074,0.411390230692341,0.615573059744202,0.844633424353669,0.2325168236217,0.928348047289764,0.357461504993844,0.19214227151766,0.345580567168654
0.180884739538305,0.694126956594409,0.483891908206861,0.706089617597754,0.454186341486638,0.501239480897202,0.502436775430106,0.866965485786204,0.150811787112034,0.0950081242766464,0.671359516649391
0.607267399937846,0.685352866522153,0.31210604151478,0.922221148103126,0.207137174573727,0.572388827031828,0.438202956222231,0.124824938977254,0.679498896027217,0.269221436174121,0.898147158386419
0.59326986967586,0.589302210868336,0.858879300118424,0.550037781691062,0.76471572854789,0.146337426903774,0.130024315600749,0.286905159566668,0.293200032516615,0.620657085293205,0.596532029359369
0.913129255576641,0.258435047041276,0.719315624970477,0.328533646235592,0.491184661064181,0.194487779756892,0.873806683553848,0.361556422769208,0.867067075748928,0.425519671598449,0.230443279751344
0.231750082151848,0.328759046084597,0.409725453028805,0.00691026412823703,0.297662313219625,0.41940836762602,0.433434691802831,0.927073850466986,0.579762898555491,0.405745354887331,0.195992668850813
0.510487638061168,0.342789387801313,0.320681988866418,0.639071989647346,0.138784544746741,0.712965551196248,0.799333585430286,0.794841760845156,0.857931211898685,0.904300318068708,0.146042922321358
0.542382333207061,0.496457690846291,0.535113864971208,0.17676442994969,0.437549617362092,0.280482957738568,0.419018291825196,0.227863451120793,0.331943110278808,0.0679114429635229,0.719184584788745
0.932153120542644,0.720474659285392,0.712072298058192,0.226452340276446,0.621027812902466,0.71076360443898,0.579548486158019,0.546887241062941,0.945893697140273,0.271681342866505,0.529063042071066
0.223539672076004,0.695482150596799,0.173617668150691,0.231909261245746,0.951449818961555,0.213034195536748,0.333209228998749,0.818011488730554,0.236964545007213,0.597750368869747,0.944485492493841
0.964048410500982,0.784485503743635,0.708190656286897,0.00151905244158113,0.180264511979185,0.681785425556009,0.242471228907234,0.643736694144318,0.620778828202165,0.541368732197443,0.815345298089087
0.0231654472771334,0.09856783130439,0.772428045105189,0.579202688212972,0.847601643595262,0.667133136909688,0.941499154879712,0.0852411066205241,0.827326261747512,0.490103079413529,0.365869999222341
0.496123456711066,0.117186953530181,0.641494285610388,0.580384027173277,0.339483301998116,0.2419583371724,0.224182982498896,0.961713049081736,0.545810922996607,0.650167821869836,0.911278681716649
0.625462598791346,0.734482062383904,0.731904604496667,0.771222110280651,0.827601768565364,0.786001992807724,0.164288413797622,0.535067945895135,0.616651030048961,0.408909253166639,0.109305467795348
0.128888311222545,0.508640979129123,0.662412876320886,0.798463000555639,0.776383870465215,0.150224075044389,0.528000751126092,0.616509532060008,0.786522479745909,0.535825133586186,0.295248426679173
0.762282102266327,0.26117303518753,0.301331085447455,0.699228506722138,0.971513252140139,0.0881965127197327,0.44750438980991,0.500654834581073,0.14426439152332,0.761847246706602,0.605075213465607
0.43403767277021,0.316774403946474,0.254725219873944,0.158729701446136,0.125682716654264,0.676351987930248,0.504524141484871,0.302083149225218,0.992768757038866,0.285728289265535,0.428719843435683
0.730589416334406,0.302339372005081,0.30359997606778,0.595166700466652,0.177904082330642,0.992670118657406,0.355914002532372,0.606387657885789,0.851970958572347,0.344988764957525,0.00753755195706618
0.31743565624347,0.136178366275271,0.853378724311478,0.332950252200244,0.794490976503002,0.565114877075539,0.536293380883872,0.781732995276689,0.0078043345786864,0.695935374606634,0.20279622584465
0.475177619752358,0.37360962522449,0.190810828295071,0.783412907118909,0.805289926361293,0.298973729913123,0.1038069806149,0.2611177592678,0.822163964550709,0.313285436945152,0.877387438172591
0.355744028969784,0.532031520548626,0.878949665810796,0.348352060061297,0.570583194945939,0.875154442122439,0.247148448858643,0.853029054350336,0.328271253940184,0.00124069360317663,0.413238507036003
0.636054369641352,0.226713968560798,0.943537652823725,0.536454133249936,0.120975915738381,0.385323067055433,0.0118815853039269,0.577926448830403,0.565253421145608,0.992114274144405,0.00190044986258725
0.394568868187489,0.332656999551691,0.49123811407655,0.455920189118478,0.741183880919707,0.238973444377771,0.858165859463043,0.156411006111885,0.778249219018617,0.498420757835265,0.819762932365411
0.735027149071102,0.821184072268661,0.318212346255314,0.136232486792142,0.342788115389412,0.277393382513546,0.909095921807457,0.684485528712394,0.601139715301688,0.516852334942669,0.627960190577432
0.820614718566067,0.01850972606102,0.800621739192284,0.0755260102078318,0.303279438026366,0.403643049193197,0.534835677230731,0.798339226230746,0.894056108616642,0.588084518795949,0.416615757374093
0.028111455438775,0.799450471844175,0.743772445326904,0.169829684811994,0.808489378279191,0.284369622550439,0.559143712500227,0.423411111047026,0.0540227246214636,0.410561186384293,0.940164183957968
0.707169079332962,0.777856810117373,0.147865065108053,0.0899949702608865,0.642881777814473,0.45295258383383,0.531191390927415,0.330009743140545,0.188717317033443,0.120229980070144,0.17143015752139
0.37681125170202,0.0438930428418098,0.666188273552689,0.45944606715173,0.4977025640395,0.738615124669741,0.286553291744785,0.333516786896507,0.841331807424431,0.875705458516022,0.250391389749129
0.449658601696137,0.49123175185814,0.693911282772315,0.953525421184022,0.981148396640201,0.907621619523852,0.71753426528303,0.295319174100878,0.284617788527976,0.74522068757622,0.79235791345709
0.465111330989748,0.220188618152752,0.370824561007321,0.829131561572431,0.718591059367754,0.970036146499915,0.801596241914085,0.878663186470512,0.0826984737912426,0.787758311115904,0.530244068159955
0.505361028452171,0.764791401504772,0.632506321800756,0.665881553494837,0.428669768176042,0.951353774467716,0.887893934441963,0.512776453213883,0.672162469182513,0.34631379858125,0.873592180245905
0.489600416229805,0.948464492175262,0.385652650016127,0.842158432108699,0.671844441457069,0.704742954446701,0.929841861931491,0.872740971532767,0.289951479788288,0.633501641957555,0.618070016088313
0.366489218907664,0.581127880818676,0.860463417244027,0.684811657466926,0.530418468143325,0.791058429652476,0.631581221593078,0.246032317616045,0.190202780392137,0.644722924953676,0.0932490995677654
0.868692066061194,0.512160936666769,0.230250652072136,0.555646863704897,0.614042173892376,0.392508810914005,0.804775949137984,0.083745981187094,0.535076320008957,0.951247025005869,0.391491681566113
0.742752586959978,0.188001202708692,0.921073562301463,0.0855408046033699,0.282214678119635,0.898129526979174,0.869028583798208,0.539284619828104,0.344075226177229,0.803901514246827,0.271043441717629
0.0677910836832598,0.348969729276141,0.164331093964283,0.0491306562302634,0.953308867806918,0.23301295054669,0.632761099798954,0.834126007570303,0.837444961211295,0.17711444739427,0.590567570652347
0.273679008716135,0.91133635699749,0.530824815513915,0.15522771397722,0.457983624094049,0.41386861194158,0.483528808390256,0.0888851131568663,0.34100104134588,0.842062682922697,0.533836245654384
0.213129919578787,0.0520650378981372,0.0268340574559989,0.486527975078206,0.625303726661368,0.0418474060849985,0.657001482659252,0.648530475459411,0.512851888676523,0.27889770736685,0.284137419793988
0.929680313059944,0.335973632562091,0.773515570768504,0.689129475591471,0.782014928022982,0.448539652793552,0.670778711535968,0.403948169213254,0.630622095580911,0.22737116650911,0.802023183470592
0.859452385908808,0.873875267573167,0.842372502101934,0.453622487249086,0.0838124198181322,0.67499806443986,0.916431185729452,0.302843842720613,0.372602959101205,0.0782834131864365,0.615373151066015
0.954830308037926,0.129189417294692,0.0114692840265343,0.677161647684406,0.586492051467649,0.417101725770626,0.540431915583904,0.618508957879967,0.625056908882107,0.437804577868083,0.764287787700305
0.196533419773332,0.56748144866142,0.739744097489165,0.8185997833492,0.215399223123677,0.340057149317581,0.41148048345698,0.146541911448003,0.270383125277003,0.144541766940383,0.758730288711959
0.562704957487294,0.502463592871209,0.247980961115099,0.867002721790341,0.0511802962503862,0.456825076268869,0.673092597036739,0.495632593209157,0.550552936843014,0.647043512063683,0.541548092631274
0.628889689031057,0.0600294059084263,0.339346282988554,0.286828256481676,0.661199892031727,0.590092990363482,0.210478874579421,0.101545206779265,0.634930333484663,0.717316856209072,0.796415155013092
0.567150999993901,0.431768102516653,0.12865501730179,0.06875305918511,0.903425697653438,0.580043222684762,0.325087089139852,0.855528239824343,0.644244749256759,0.636113403045456,0.113570165698184
0.0442382210202049,0.419655522134854,0.442441749869031,0.787735541547299,0.726627270145691,0.964650887380121,0.0947554833319736,0.612951962759253,0.926092204172746,0.933256916104583,0.281913182681892
0.336045993629377,0.453332052309415,0.573693184724543,0.194032331902417,0.744142791015911,0.816909641863895,0.0426987481274409,0.287584335004794,0.111850417034002,0.653657357253833,0.712652300085174
0.138033536575967,0.678598659849376,0.49301318744896,0.796165576224448,0.355735119264573,0.366746986607322,0.478794386505033,0.191553612748976,0.940075512914918,0.756305139173637,0.664041163556976
0.836598651874228,0.33812763654103,0.997417028784403,0.489431536845514,0.476355022643693,0.670665302117704,0.319140687973704,0.916077196592814,0.834994540314074,0.353071035763714,0.0551975179859437
0.166463851310546,0.825628541109618,0.957657428044477,0.0523042773426278,0.70760184685234,0.377653308139415,0.0143548711045878,0.482784391793539,0.718278770277975,0.907311883011134,0.754309598837281
0.698272375133238,0.416963698425097,0.349338506790809,0.826650725351064,0.448766303394223,0.0694753289740765,0.307457464706968,0.622233035195968,0.873618896006374,0.458549537364743,0.176657224885421
0.517999560083263,0.30585230338329,0.757598357531242,0.925066603029845,0.352651398782618,0.525559934650664,0.34501554418006,0.597539901161217,0.732312254497665,0.0729973340267315,0.525004526279517
0.588081852230243,0.0736502552276943,0.970513798358734,0.734739646857488,0.546854466777295,0.228045675038593,0.380375413898728,0.170144940734608,0.431826670657611,0.857698174081161,0.211537538856501
0.649145242971717,0.262796077263774,0.093773865608382,0.567572498442605,0.172606606414774,0.638736652271473,0.64509717496112,0.692096848127549,0.15521917676786,0.165515774002997,0.344769502892159
0.343308489085757,0.840354508996825,0.630286012779688,0.0589845349133248,0.373211874008412,0.82822561023524,0.810419802216347,0.426919201422716,0.246965356133878,0.310351532801869,0.255858300037216
0.207864066438051,0.633564750661608,0.87679354388325,0.736940041198395,0.729527773711597,0.331559562811744,0.650862216887763,0.0940888804406859,0.392752409235109,0.938753984197974,0.918986407642951
0.02129993860377,0.379640729025123,0.397981343184365,0.758432456473238,0.733716183748911,0.91243764795945,0.499800048581092,0.231440362851135,0.437602631391492,0.294767837456311,0.520673659377499
0.64011373699992,0.0146386361244367,0.439608321420965,0.838086696378887,0.677501434742007,0.851773569675279,0.399231757171219,0.176842485317029,0.0254696105519542,0.266081348601729,0.552122572407243
0.598494480582303,0.265680036457488,0.674121958640753,0.0303334565187106,0.508068448914564,0.533374322020682,0.890975477741449,0.741945042627631,0.604155858869781,0.32715626296238,0.831848067938699
0.686696600962896,0.590652363885893,0.846183345059981,0.531646967049455,0.379939045627252,0.495401627452229,0.509256510116975,0.653779742114712,0.787603577991831,0.993958856312092,0.523180275268969
0.78396151875786,0.802040878714179,0.0234855683404021,0.760859855643357,0.189435158164124,0.832370064417482,0.946907007001573,0.163642090001376,0.22493324793817,0.248927104297327,0.566562674379675
0.556971811840776,0.971989861233742,0.849295490618097,0.710937778645894,0.622983011993929,0.411038984978222,0.351644924964057,0.01635351926554,0.801145756785409,0.214543189153774,0.445117292082286
0.191866915895953,0.420726622180664,0.839866194442729,0.528823045268655,0.106233871529694,0.611974169169553,0.151291464670212,0.924574204747914,0.0190761779912282,0.927958034106996,0.455731447254657
0.582346051262575,0.370772059250157,0.597131389622227,0.0233786080894061,0.0714791861065897,0.574028298096382,0.0413133372564334,0.581789639752242,0.258705649378826,0.246372472366784,0.100834460631595
0.724438857146888,0.900349339561653,0.714213382683229,0.822700382757466,0.00113443280628417,0.857523538299138,0.170080218735966,0.886730682105408,0.415035291118547,0.792400929106516,0.669532821836765
0.707708929533837,0.675780952292844,0.131307309836266,0.173947568697622,0.988886821261258,0.977133110658615,0.0901455066475318,0.367290132782655,0.704869992587483,0.729489361993037,0.493387191999354
0.360799156839494,0.619291329749394,0.204320776968962,0.811919653269579,0.136149791821954,0.252208357257186,0.0757435243780492,0.61133969167131,0.75444673342281,0.750105890040286,0.991694616640452
0.658617320864578,0.0307615691347746,0.417104969705106,0.289294117785757,0.244268178799539,0.824480989449075,0.453789789014263,0.69783758436155,0.3395113948785,0.50669877985667,0.866552057052613
0.00204922857927159,0.916790429231478,0.0160182309814263,0.15088172481861,0.161978795169853,0.568136660662713,0.296650993427611,0.655582802308491,0.61903025166248,0.418893059885595,0.304239148208871
0.0532805646350607,0.106119327640627,0.977938746716827,0.162366914198501,0.381002209833241,0.615161513422499,0.768136348891421,0.951760092010954,0.261132414371241,0.670639575113892,0.65645870997163
0.702233170515392,0.824080071563367,0.368458658609306,0.197713895399938,0.00837888626148925,0.537743510097498,0.472452473248122,0.339262640651432,0.938301292258548,0.637924261311418,0.061506993053481
0.157806990396348,0.66793554609525,0.241922460694914,0.605278895861702,0.534709406969487,0.319561487088795,0.921212454650667,0.521527139739483,0.796868954152451,0.129068214885774,0.561913277314743
0.645999626194825,0.804691255379003,0.764622938501416,0.204751446641749,0.394241363691399,0.179571787763271,0.111927541147452,0.980487300707027,0.94841908688948,0.714380481781554,0.243894077723962
0.392306381533272,0.47864840806229,0.296428187181591,0.221528595639393,0.32287385624717,0.313290968586225,0.964953035702347,0.37627300053311,0.213884002746781,0.879909837950254,0.693360720014316
0.880857221326442,0.0750761901214719,0.424387545386562,0.91129348819959,0.209241666379385,0.153107773637166,0.17489197054354,0.369042470408021,0.172787575076218,0.130220028930344,0.451810238870676
0.148557192176231,0.104912004864309,0.317339383972576,0.963911935625365,0.34635438385536,0.427177321871277,0.126057998810429,0.0543288197228685,0.77676851719385,0.484002010762342,0.556205570272869
0.808917235066765,0.95469847878674,0.291957233181456,0.655426987622632,0.423162346920581,0.0632736989331897,0.785467368647223,0.458771565289935,0.471277493397356,0.115219239490689,0.553455584288458
0.0877544445951935,0.197148205208359,0.13559049523843,0.77302058889647,0.194769389120047,0.161076868135133,0.825367179119494,0.181536925035762,0.165346600234043,0.255795072552864,0.792898161539342
0.0855096885515377,0.630398669434362,0.947442472848343,0.570768391533638,0.669645805457258,0.958525554237422,0.450150620227796,0.709309845271637,0.869620551346452,0.628429393727565,0.652220052958583
0.0469437049940461,0.256694503987092,0.257760024025338,0.145795804718509,0.349802473903983,0.65722706541128,0.992683361879317,0.789106463220087,0.353735555901076,0.995768796707853,0.14023437812808
0.948538355313358,0.60788961601851,0.901011725469143,0.363361575627932,0.584636699961266,0.125744243405643,0.593404637670028,0.464393157472368,0.0476551449100953,0.188955716093187,0.499871769312886
0.718610414784052,0.689164719468681,0.963934774381341,0.370317129877512,0.484891747118672,0.755678875627927,0.0837528070434928,0.158281881604926,0.516804577866569,0.870761749752564,0.178721208583447
0.703896145471372,0.278724043203401,0.115872762120562,0.315307770665386,0.682806736015482,0.131140998148476,0.0720611322158948,0.0226647122926079,0.108814844259759,0.302845072586788,0.453488324243226
0.307750756292371,0.290318001717096,0.994268042065087,0.302934241446783,0.257010662776302,0.468579573618481,0.580272226067027,0.63327534663782,0.572781795945484,0.104229404010694,0.036745435356861
0.586981609332724,0.113601656690007,0.651157503430732,0.0186777439905563,0.697138380296528,0.536803352399729,0.625396316765691,0.0950684588350122,0.589286378666875,0.341691266597481,0.245609968352364
0.169689208013006,0.870318133813562,0.220188804781064,0.877208170043305,0.56595287468168,0.322570732981549,0.512354523955728,0.218792116248514,0.496392339065787,0.863397398235975,0.0796382416220149
0.453167105797329,0.527066113989567,0.243358940386097,0.165385324111558,0.152705949717201,0.210563943552552,0.291858487909776,0.0908991493459325,0.685456317277276,0.924869066912215,0.809222220192314
0.380841032057069,0.958434395503136,0.495473222402507,0.621587543181377,0.158935829955153,0.470440606416669,0.254640131251072,0.469225025019259,0.254302458621678,0.442834359063418,0.401539267852204
0.788256014160579,0.659770728187286,0.579022439556429,0.747315770560526,0.500699262027629,0.982371241661022,0.715302941028494,0.259461224660627,0.584479454336106,0.0348341161815915,0.0379398527083686
0.552970786067308,0.200512161354418,0.207922765507828,0.0283026823739055,0.144301064077881,0.736501228513662,0.407259451347636,0.932425647472846,0.880911631479394,0.860009394005756,0.307796855773195
0.0340690460015321,0.450491644688882,0.696972823672695,0.133253455148079,0.859856345682056,0.10661215057713,0.774324135712814,0.120394111861824,0.0783688173111295,0.137570003864821,0.334587865083013
0.572365981417824,0.731654803468264,0.1135856817069,0.936456564319669,0.0822083092969842,0.101136277494952,0.0603056296415161,0.711466745466459,0.0911435511370655,0.222245968325296,0.733830193124013
0.830516483131796,0.207124779453734,0.541176480446593,0.125191909160349,0.906912670403835,0.872568346146145,0.87045492230216,0.534259719809634,0.966818444650271,0.820976965173031,0.200383395678364
0.970756135608535,0.141919731444214,0.00706856857344973,0.600059139963705,0.300897921080468,0.58521790644445,0.756807257835171,0.116652232684428,0.548939440792892,0.302416870734887,0.0746472659718711
0.876959987073788,0.21619008408743,0.445191311998642,0.462540606948314,0.832845944953733,0.833131303304108,0.771666524099419,0.306449290027376,0.1139039997285,0.774903613599017,0.836756265603471
0.733145973408245,0.161595881801914,0.362756577683613,0.588794384679059,0.0544513678469229,0.619401426179102,0.230038012146833,0.350408105412498,0.921582819781615,0.754903815572034,0.738963420647196
0.0101747732691001,0.028895864560618,0.966524325960199,0.781572540866327,0.699602392204688,0.328895367560326,0.359417786896229,0.336164313310874,0.830532525931485,0.669486423217459,0.021816600972088
0.833464066131273,0.616833496245672,0.906550976008875,0.495950210875599,0.186250296431244,0.649864676135476,0.487641632891609,0.142706770110526,0.146895653270185,0.848429901581258,0.806983521573711
0.782397711787489,0.465196737341466,0.890431546062464,0.951386080507073,0.99263906767359,0.988134771125624,0.789200900743017,0.823411665197928,0.750580830367398,0.134147027997533,0.228291429249803
0.766334773095441,0.845542987216031,0.344762109601288,0.998034701817087,0.149695337782614,0.903143891707878,0.429894793612184,0.2633705018193,0.979833805680973,0.580194545516861,0.438483417789103
0.154710034150048,0.880814389360021,0.57572038061393,0.775369399788324,0.124842326187063,0.887006692156428,0.45542708249006,0.752875368348905,0.696905402668635,0.749134414932923,0.157546931217657
0.90120178773941,0.606885082583758,0.761759941868368,0.0109765360556776,0.30526471512625,0.0670764312671963,0.133278803594876,0.125569758342463,0.793382116399589,0.378168767530587,0.448770714338752
0.665769558069296,0.628317864703713,0.42546074541111,0.484637390061398,0.674932257765322,0.603426197044319,0.219423939015833,0.742923296983354,0.485769752233173,0.587016989762778,0.813209048261051
0.651603017172311,0.755301129998406,0.85703367414535,0.81276262663072,0.925831844386412,0.207219149622251,0.865783247032086,0.10633857701323,0.591889401550288,0.61718435796618,0.0288660852919566
0.945701620174223,0.926893626336823,0.785552852946566,0.532516195156495,0.468470051431214,0.0235079337767092,0.33154287441168,0.967963618346257,0.511666195282014,0.53829840934719,0.885036893261713
0.72129246428085,0.918577280101017,0.519672603870858,0.738416010390501,0.874020119006163,0.242822425762424,0.250762129647774,0.922424091424327,0.576665033088066,0.135327181436587,0.357371124332421
0.25214537742082,0.26757588020293,0.450776360050659,0.718434171960107,0.0271464500238653,0.973466072479496,0.138005685444805,0.149351011468098,0.937268088422716,0.0847420260932995,0.0844041155721061
0.574299105209648,0.794226633801591,0.0208847958239494,0.195095339603722,0.93228493552946,0.678980953028076,0.752184644928784,0.963628703361028,0.445855769471382,0.783581473522354,0.710976230493397
0.124149469175027,0.297269041995169,0.745425020572729,0.0626697918632999,0.770215852757683,0.177040067645721,0.459119489198201,0.281517863619956,0.41157380204415,0.794413827360258,0.586091819835128
0.890628847155604,0.981285827134852,0.523686821907759,0.661364781549783,0.932643631711253,0.438703830912127,0.982792472000001,0.840966511400184,0.648001180256833,0.708433267647051,0.25478454439959
0.406659529586905,0.274067963304115,0.0605122071778169,0.611814931093832,0.884158965965616,0.350136436758912,0.847358821700327,0.389329601902864,0.228435556704644,0.0449119456583867,0.871854328757036
0.549941959921271,0.0150577953172615,0.478733591752243,0.861604007005226,0.543517776051303,0.302681170459837,0.978041723241331,0.250595805462217,0.103491860158974,0.329677882585092,0.368731746337726
0.0637861074594548,0.131582300126902,0.172432525946642,0.404958780350862,0.183025805754005,0.741993992665084,0.343598247076734,0.63871637677541,0.285207176129334,0.590191046546679,0.0270035537978401
0.155889573931345,0.270608799745096,0.033422966406215,0.562503664089018,0.900230540541816,0.854410282915342,0.723217730520409,0.852037904838217,0.321071598185808,0.204999556477997,0.332408015652909
0.545329155537183,0.390503327512415,0.538199688421446,0.422983801648952,0.540177498253179,0.199485439783311,0.882443217354012,0.829684914055397,0.389619445629069,0.640400112945936,0.169851869356353
0.350539700486697,0.197778518344858,0.403030108177918,0.296969412277685,0.0909419345128117,0.562787642460316,0.0213521162548568,0.220345002064132,0.123584736555349,0.0127652600262081,0.751309045052039
0.955023941483232,0.514923805909348,0.125509555806639,0.109605668548029,0.651726529323496,0.0745808499620761,0.0299916908098385,0.63546990609786,0.691179176806472,0.382440370932454,0.592521224866505
0.691786044744658,0.00558504734886811,0.997683069404447,0.338802488315268,0.957169509764644,0.343195525376941,0.848085904061445,0.445293634771369,0.972817461413797,0.677647753378842,0.65913172998582
0.212286904231878,0.963229842115543,0.89662708362157,0.28071198781603,0.444441595473909,0.0433294121315703,0.931519916994148,0.528853936761152,0.95562739505549,0.38731606832298,0.85470865026
0.501572397584678,0.124630606864812,0.373620229722001,0.990484665671829,0.219380161286099,0.190335487866541,0.68254149539338,0.0284323232999305,0.296098209538613,0.899176115212613,0.921522087372723
0.186468878972228,0.876213562333723,0.58088707804447,0.0916535909700906,0.111110769979423,0.120484501290484,0.259659262309433,0.773498874354409,0.12904630286328,0.800555344811291,0.852021345061948
0.277487268531113,0.578293226101086,0.769472666144138,0.856166984849842,0.811239656468388,0.265544068885501,0.852173850586405,0.907890335709089,0.409887225399725,0.744739528868813,0.820446777910111
0.423804895305657,0.351647431068704,0.206884385956801,0.43440901125432,0.198742307500215,0.0569480742904125,0.189688799848082,0.80285010013904,0.269237040838343,0.953376988198725,0.258076319253305
0.516418223338551,0.962264462068561,0.0468977350520436,0.742665659132181,0.030134600995807,0.499140966540435,0.402527467203327,0.84416278923105,0.780249915813329,0.236961383384769,0.314433033747482
0.0745410281629302,0.647161421281635,0.0956585362029728,0.139391539279022,0.516304803601233,0.783452973062522,0.924250399706652,0.205918040761608,0.900404051078367,0.543271254298161,0.0523258962045656
0.428205077198218,0.275258724684827,0.0796123235701816,0.254651096629095,0.310208847881295,0.966858445829712,0.836058615205693,0.0101060750661418,0.306221567546017,0.0989330096082995,0.731335050237831
0.906048694795463,0.753498157483409,0.305999685071292,0.105899357333546,0.558835550371441,0.507783167914022,0.200144716229988,0.733641887942213,0.133967469191412,0.686979818932596,0.131967355681118
0.805916641098447,0.299841187180136,0.508390563690336,0.868722557114088,0.592922009337344,0.0150551251566503,0.564425190992188,0.996914864021819,0.211634042471997,0.125177052158979,0.636913206701283
0.897987979876925,0.280155261640321,0.27780541731976,0.163463323764154,0.71246319713071,0.763240104886354,0.582995681486791,0.983434423348517,0.206345597428735,0.0358810090721818,0.98605711086886
0.0806931104930118,0.480932901981287,0.916926272980636,0.100483359365608,0.0727987343480345,0.472777583561838,0.615254307839205,0.153050072188489,0.0427102959231707,0.838152998365695,0.510459230386186
0.883048019104172,0.785194436458405,0.989999643830815,0.603584304302349,0.4066283819417,0.721658588214195,0.586367674455396,0.943807886350551,0.682158946871641,0.0567386429919861,0.645422803530237
0.951721010736073,0.743947809360689,0.227608848867822,0.379887360301218,0.0797128740057815,0.396890762083931,0.546749703175155,0.997942692593206,0.982677955286927,0.798547333491733,0.620263300146908
0.170322745003505,0.475714594243327,0.329436799570685,0.94361369993072,0.876148187112994,0.51884758672968,0.149866196929943,0.609654738001991,0.929536000147345,0.223529886474716,0.0665684466791572
0.610819075540057,0.951755328280851,0.267312921499833,0.625286161197582,0.797558361593401,0.0595752134051872,0.225466834808467,0.217263301164494,0.350938216167851,0.259760159049183,0.951254792356049
0.306815437637852,0.596545722713927,0.461994625221705,0.0274673986469861,0.852330890258891,0.012651474555023,0.834026239510276,0.493319964565453,0.964205245986814,0.583788544082781,0.286821612947388
0.225183965117321,0.897119971065549,0.790784629487316,0.140295983041287,0.929695128611056,0.934995549698942,0.0795411981781945,0.902945655350341,0.450480784040992,0.805965996606392,0.848743667099043
0.871090852095513,0.10928813519713,0.777118277898408,0.121243144152104,0.395127566079027,0.182782503650524,0.942910300891381,0.249300939796958,0.386762937669409,0.915472298023524,0.539986236356199
0.318104654633207,0.0701696074003121,0.973913212174084,0.582982899777708,0.480999346816679,0.891942398871179,0.244904731378774,0.0648769837454893,0.863871783909271,0.0474787165201269,0.610679726208909
0.0420268467080314,0.749184516263776,0.000524413143284608,0.466726806826191,0.641085010854877,0.99851851736079,0.257426146242651,0.889660461474559,0.276567758799065,0.907558260551887,0.0227644945681095
0.125441380361444,0.766883817687631,0.968497929003788,0.46950472817407,0.963366928772302,0.794847297267988,0.895905807981035,0.739522826096509,0.218713644600939,0.558468664428801,0.0301726541318931
0.44592378417321,0.425735927450587,0.144838104163064,0.674223375616129,0.351469113760977,0.717869847088004,0.468767567038885,0.13950392779836,0.0954827265063068,0.893296981111634,0.409310329733999
0.852446926132543,0.0942080020927824,0.961551805649651,0.20680454854737,0.824731615552446,0.544159885262488,0.0817289897927549,0.591231929397327,0.473132531276206,0.631179817309021,0.232556471144781
0.726653330724803,0.967857050718158,0.158536506256787,0.246710573267192,0.155884165196912,0.8069571602426,0.610160279086558,0.454630382505711,0.543602392099565,0.333567941895453,0.769650567531935
0.141029400638072,0.309598591671092,0.624561822487158,0.268519272480626,0.265694715963909,0.253921783553087,0.526624146127142,0.681489490378299,0.819527303860523,0.0494042992015602,0.71711449175782
0.133024331326596,0.879431095410255,0.779833666986087,0.0345904095348669,0.287803184103686,0.825477035690565,0.0174232038180344,0.796586532550282,0.652669753943919,0.404916901968536,0.352208703614306
0.664559796712128,0.991998836715938,0.309828484638128,0.766152218863717,0.0104236898955423,0.0914521757722832,0.739030507587013,0.00875658499542625,0.997794235222973,0.569300019362709,0.0717016711103497
0.115366279438604,0.13770071822335,0.83355230269779,0.891762195900083,0.878203772676061,0.593573120945366,0.676989640831016,0.703949929355877,0.185804263909231,0.0609234190988354,0.375918030140456
0.262665501713636,0.933826004815055,0.684415783329168,0.884258109577349,0.0410097152332309,0.925233098884928,0.303583576602396,0.975327591873356,0.201324682520935,0.0862373451062012,0.881162352010724
0.677378267978784,0.80684063466615,0.225531011167914,0.754757878561504,0.94801774378866,0.0541687624074985,0.974746648679138,0.201101161823608,0.107147215004079,0.702858678438934,0.639935706912074
0.0607736660511,0.647916720595094,0.111486497331061,0.0200381854455918,0.464735688561923,0.071581567574176,0.307645492345328,0.588971329383203,0.0815476200601551,0.0282561589893885,0.952785552637652
0.246549320435151,0.0584748691623099,0.699794136692071,0.723576338717248,0.0678882071498083,0.938887187529472,0.548655948215164,0.602890629522153,0.837865316866664,0.510071178354556,0.462692205428029
0.0160755367949605,0.383669379163184,0.737349522512523,0.48044740801095,0.293664453210076,0.578830296085216,0.106504858020926,0.0133092213247437,0.529532270213822,0.474868908853387,0.132572796490858
0.106978921311675,0.882822430530796,0.928786646164954,0.918039993522689,0.864297260312014,0.555951125203865,0.135091468982282,0.0465963732590899,0.804138057848904,0.739020089330734,0.674674912166083
0.837690843300661,0.94440884306212,0.84404009182821,0.123676763606491,0.51100947704108,0.921786371786147,0.0379609749495284,0.762207308324287,0.18456989650731,0.00635695677890907,0.744259968394181
0.925757561913924,0.817421988137648,0.0627581400756025,0.853866779432283,0.0670208846032619,0.00373950701090509,0.627595068906667,0.0178179528645706,0.370450574297574,0.732672709994949,0.700832346720272
0.0714979126641992,0.584091101161321,0.146794154173112,0.0546863829862559,0.916627092248527,0.392340174053679,0.198955432547373,0.113508800364216,0.977333996118978,0.681229182044044,0.841886257858132
0.0178564835613361,0.555522552592447,0.00993605279189069,0.308079626048566,0.0338083224801812,0.0501977379649179,0.952289241594845,0.443154209165368,0.94265783391369,0.480384188841563,0.165619597789482
0.729372235689079,0.796676811322104,0.0354197113151895,0.997019849563949,0.704797944127931,0.627321950300829,0.263482859018841,0.551840816356125,0.606772723488393,0.717851764768129,0.155973421767703
0.179818696730654,0.728100838362006,0.923665193078923,0.88712354315212,0.116234429290053,0.990204172350932,0.893849831748521,0.429978060773574,0.498840944777476,0.207833234068821,0.241516514077666
0.978071451881551,0.331363944678451,0.619311927742674,0.500109323747456,0.0152765166113386,0.658042715930496,0.9115411576716,0.544479215811589,0.884055831396836,0.424333075595787,0.0862882867071312
0.828448557159863,0.0822466543561313,0.138043182977126,0.152709508514963,0.896383808907121,0.978612784817233,0.249867763657821,0.379499438480707,0.0119478396407794,0.518692102220957,0.102536055029486
0.193532164739445,0.204361986159929,0.121673793994705,0.438808437497355,0.611900210906169,0.399497183828498,0.595664589030785,0.751722248632577,0.596475816390011,0.796975858965307,0.804624319135328
0.844948947383673,0.568619388401275,0.687656139800674,0.908542778653791,0.465345004338305,0.346052141574328,0.235990225050482,0.814682009599055,0.0652568739897106,0.57879759889096,0.0807519113068701
0.798546077306964,0.890123161681695,0.948705344792106,0.93472919987631,0.390888286805712,0.272589005458867,0.875948128344608,0.00669990955153482,0.597545154528925,0.844240822379943,0.868451196007663
0.873616744771134,0.0796592660376336,0.81059908954252,0.367171190606896,0.721017605169327,0.689073508291622,0.0264263712370302,0.109115186918643,0.209419432870927,0.2838652817189,0.995994412157452
0.678932446515537,0.84396930558607,0.556589858803782,0.40922075144772,0.985035545598948,0.821151967826881,0.690787165113143,0.312545077566174,0.479537372455816,0.331075866094325,0.609613093257067
0.600968717577052,0.165036299598869,0.520323709311779,0.972140763135394,0.767498580429819,0.607593351720716,0.567313134878641,0.311397191667929,0.764978918003035,0.700005917252274,0.462395377572975
0.265167787258979,0.0463615253759781,0.874935591457179,0.831189918780583,0.65444474680291,0.143834690220538,0.157673746469081,0.678370711884927,0.0873810381640214,0.82770042581833,0.756850864469306
0.17311662307533,0.941832310639438,0.39208369568456,0.234078569517005,0.990676188151119,0.18024263593019,0.904491175420699,0.790431940670824,0.170291449964861,0.710156502383179,0.440273668854497
0.95797950892651,0.461254680601414,0.179138901957776,0.298989104547654,0.119346441986272,0.102848645395716,0.745510404524393,0.0363151730864775,0.0036738585063722,0.00915744274680036,0.811778653580695
0.25402033543447,0.996368692791439,0.458794826497906,0.113737360958476,0.0361189359729178,0.95631882577145,0.00977793954021761,0.0565818059589946,0.36021983121871,0.0161142186279176,0.60236643372511
0.683049533414887,0.319233555207611,0.0858918711048318,0.427015683309292,0.519023751890636,0.914653678346658,0.109567424770212,0.412716311481199,0.540092161924695,0.112313397146063,0.661127546849893
0.136718597274157,0.999976402261527,0.217654620935791,0.504174678208656,0.403760277435067,0.339960798016982,0.229353788224398,0.677462561777211,0.889360806961195,0.219165432071313,0.984871916980483
0.988302180885221,0.643372133094817,0.934368928464246,0.968847678030143,0.890642866780399,0.545200761639862,0.366814873044495,0.359667696684483,0.0414263719762675,0.477820817741449,0.799361935718916
0.304006918797386,0.601825395520427,0.0920880973758176,0.961767447113525,0.561605671355501,0.264537201346247,0.812540316178929,0.93763677184761,0.397560175123508,0.0395022716931999,0.128897099513561
0.269836042671814,0.40912457346567,0.913191534131183,0.984045566638815,0.095976363082882,0.223101198275108,0.961531721019419,0.328041286907974,0.744491068983334,0.888698956605513,0.301697874746751
0.620490003040177,0.0527772953675594,0.03196298980969,0.899393432521028,0.488123785488424,0.797966362695443,0.154919762206846,0.993502024603658,0.930818301084801,0.67515065056039,0.288365666423342
0.0831750707456376,0.00447336879326032,0.217185279020923,0.901735196337104,0.0995686457620468,0.424098636476556,0.0317872966238065,0.660008824698161,0.241075692274608,0.48585164716118,0.971762571446598
0.773544059217675,0.0678169920266373,0.932242248372058,0.74827891439083,0.736972747995169,0.293700296540628,0.422523724146886,0.160062382446486,0.518516158058192,0.0580469284969149,0.0962045457452768
0.801736358967028,0.67488927522907,0.156229509927216,0.395685857157223,0.0380383682175306,0.779325421519461,0.794060637533548,0.64636761232221,0.177651086283731,0.834154296322959,0.0418184184370329
0.320705985734821,0.395865595822688,0.529120945013128,0.0561899014539086,0.81675693444442,0.878835974935209,0.096488558644196,0.632085895257187,0.875389710864984,0.0764457746443804,0.192589885655325
0.288041987335309,0.529772683423944,0.868168126165401,0.956380247148918,0.969515128128696,0.814837455316447,0.0515728361794027,0.651629623899353,0.176554634477361,0.836120547117898,0.292715853610425
0.713106277401675,0.224001850463101,0.0651844443846494,0.722300536484108,0.974730987000512,0.775746739097522,0.81858112158021,0.185541234466364,0.127164433285361,0.0910692921391456,0.0992462160100694
0.415943355382769,0.327063547055004,0.354008518026094,0.0840782905585366,0.7853888782172,0.295962471860112,0.669557408802211,0.000965833875234245,0.116582633071812,0.826787902125507,0.00684542731440163
0.0957810700341361,0.976365759451292,0.783356032596203,0.282643448194722,0.190889521006611,0.984628795675817,0.606302423093584,0.860115597737022,0.379124652930768,0.897209438298596,0.960114692134666
0.975156655890751,0.152571490117698,0.166796173040057,0.874879520972026,0.513636247463292,0.117819843445905,0.0182353668170981,0.272648498578928,0.613702661744901,0.85606094131479,0.484364800279727
0.200950262519764,0.977885634743725,0.909074699296616,0.988029240143369,0.843955370601034,0.170682635782869,0.571113922904478,0.745107121525798,0.0550735308177536,0.962740575059433,0.0125420851149829
0.847255587158143,0.0343972533772466,0.342219189313473,0.5941873900668,0.00482252060144672,0.202773533128202,0.55086104742426,0.801651332131005,0.057948230766342,0.658344081430696,0.775001688449411
0.0674741511256434,0.380606876573875,0.182255254895426,0.369711684442591,0.839867376219481,0.866507479753927,0.0990735250047874,0.1371610841644,0.159121817010455,0.237827512451331,0.0478277864627307
0.353845355539233,0.364347001691349,0.0287091592920479,0.386727904531872,0.866463420691434,0.15663943010557,0.0499676788190845,0.319543874919764,0.853151524614077,0.998946832651272,0.112471577844117
0.17513961509103,0.939742844225839,0.393752457179944,0.714847621559165,0.131617213393329,0.111917443058919,0.981655320809805,0.223445850824355,0.0707660672033671,0.682774834622396,0.260441341156838
0.80351207036525,0.406005825176835,0.889679110352299,0.672269640570739,0.241212337903562,0.216514360786532,0.997838023357326,0.564645537319011,0.916373276556842,0.17339667336084,0.965447475181427
0.667783026259276,0.0271149471978424,0.152200473379344,0.292697841695626,0.589215243182844,0.948786110821529,0.976488772843732,0.966539882363286,0.922534887755173,0.655792509113671,0.994217881277436
0.656339186757687,0.604428545368719,0.951617448203615,0.615646624791552,0.961405178828863,0.800345287972596,0.933731676379684,0.955425901068375,0.990689358944655,0.574479894646793,0.861329145093914
0.771593349745381,0.835535015374189,0.263599158179131,0.0815740240953164,0.869420456367661,0.476961837696144,0.986299305504072,0.81724110948795,0.805769160504569,0.0418795173574472,0.904558496902464
0.972801535527105,0.448678402539808,0.793475047405809,0.74001056757872,0.959707331745303,0.0927378440694884,0.209978025227319,0.895333170616068,0.824345370476367,0.922447000529501,0.249219152259757
0.885327753101592,0.0217086918046698,0.980403168295161,0.478073970130645,0.340773417148157,0.510655870730407,0.9710762340785,0.872095690587303,0.262520268079243,0.108921990522067,0.476633066378999
0.866333244940033,0.641360445460887,0.813015148341074,0.864547006862704,0.087572793540894,0.141556776475045,0.0640594910114305,0.111735868932446,0.423226329637691,0.392880968342652,0.891247404820169
0.384842843711376,0.924152545430697,0.982560358038172,0.200321217611781,0.321124885209138,0.0865781608509132,0.0671081729856087,0.946721682257485,0.204127567257965,0.766348777704407,0.0767077464942122
0.995274678659043,0.966679399836576,0.312730432449025,0.0734493284940254,0.10228920024645,0.0261080913629849,0.824766356789623,0.473762024453608,0.046223424738273,0.26056468603143,0.0188232306821737
0.219356282153167,0.550724471630529,0.0765784038067795,0.75158656424901,0.246098966379068,0.849143749723444,0.88623341347964,0.910793650187552,0.735754360004212,0.118584111422533,0.976419749810011
0.536046965859132,0.366384495209786,0.671454674829729,0.846490333056427,0.32633337580075,0.75930471812957,0.853519294841681,0.00496976576629093,0.0885193774627987,0.243571508942987,0.929333969888394
0.990424870036077,0.818745909320423,0.255626464770176,0.394281734527904,0.408698665436241,0.558939841708634,0.339693774820189,0.0400402841198957,0.90721811444615,0.0722444504557643,0.347563369833515
0.312774014353054,0.229384441120201,0.835872292449349,0.618473620644654,0.0481010420486564,0.0616605139087187,0.155371814976097,0.510193098739255,0.050064583295607,0.350805391509784,0.0106474644027185
0.57588203009218,0.611326322018285,0.866089734205161,0.237266509775654,0.921467909521307,0.00664027625462038,0.36152115849487,0.769010934059625,0.641391893666005,0.12484329705243,0.857506010963698
0.031045160292997,0.88595944498491,0.198490454953862,0.210735843959264,0.214681368338061,0.942627939532977,0.599103330009384,0.0682684971328126,0.101696256730356,0.608211048208759,0.720090905925026
0.981992346752668,0.368942974660313,0.19263522109366,0.237500817659311,0.967434616809478,0.0210920862242346,0.775596656203852,0.5052867206675,0.336770297617186,0.101932424816187,0.404928131038905
0.993609592185239,0.0352844196406659,0.808829046578612,0.219954076382564,0.65821367659024,0.872410987110925,0.959451009370969,0.0805387319641886,0.959610219681636,0.140224419819424,0.937924979664967
0.110500736928661,0.788328709728085,0.956001092591323,0.894308706938173,0.943017003218411,0.484477037511533,0.76515878794482,0.283023659014725,0.527058099462301,0.00289871340559328,0.847432310051518
0.396757452294696,0.862556343908072,0.81817630577425,0.878699361124309,0.328851690935553,0.614690377974766,0.120609890226624,0.918066134038381,0.95375386715983,0.155247547004838,0.206407430539839
0.878658437676495,0.717774666628684,0.294906200113473,0.0974268928624224,0.945977150870604,0.761940053341095,0.953248474825523,0.78327958325448,0.0927032036019955,0.892282368804445,0.0151426730438834
0.347136617421056,0.928463808696251,0.436697119935998,0.67906766706612,0.814005749741918,0.0844919382838998,0.0564360560802743,0.882941844013403,0.567802792152506,0.960098297923105,0.826467659735936
0.902930595224607,0.119244729610509,0.0395976543670986,0.00399482330481987,0.0617472393426579,0.685552878716844,0.689003633287502,0.685507557031233,0.766282556703663,0.0641863851604285,0.782530192886479
0.0758322492771549,0.125768184972112,0.081906184371328,0.229878982814844,0.0218552975403145,0.880377114406438,0.642292138701887,0.906582121785614,0.93471148445562,0.0506828080373816,0.149417789982399
0.753845930842799,0.101955642176326,0.0749756403348875,0.977957572704763,0.151568868416362,0.348378453710466,0.744741777565214,0.235346280638478,0.768084301514318,0.0815189353568712,0.936091412912938
0.199860637717648,0.173652923930786,0.985261738055269,0.18591614674544,0.999503584604827,0.918960124259465,0.262139903001953,0.187751647124533,0.683227049497073,0.72004545026517,0.396688059121952
0.114174932918977,0.663988302436192,0.990212108287378,0.181552203387255,0.23092818342091,0.463460192502825,0.956492285445565,0.0655495810264256,0.711260053766891,0.161963523916784,0.3636588177667
0.294761902961181,0.24382713613566,0.721975040089455,0.835177272813162,0.0597631061874563,0.936623619188322,0.831935138218105,0.933580417633639,0.0155205896036932,0.883154096059152,0.729181882606354
0.857010941570625,0.238105795857264,0.705165605890797,0.0404881441657199,0.693729367000633,0.868321932354011,0.213840817364398,0.936268414012156,0.912949469384621,0.357649395293556,0.916679610940046
0.894345742787118,0.86578190029948,0.789909577861545,0.1893052594451,0.238546442168881,0.961244216051418,0.0879101760743651,0.973776691209641,0.828408462759107,0.85246763410978,0.264304263330996
0.634113635949907,0.852371045176405,0.592120585928205,0.445617252809461,0.0144939780072309,0.222144215922453,0.967588989880169,0.74804314438079,0.0772292813815875,0.36825664889242,0.988484574786853
0.439266454366734,0.848275190530112,0.042576651868294,0.821565405868459,0.47405179956404,0.158673829720356,0.913803495731554,0.988313867918914,0.452824761286611,0.988472885198425,0.324236870032619
0.150022219291423,0.0403350771038095,0.140400025206618,0.833201159171294,0.732160486088251,0.987449182842392,0.937842372531886,0.0989975701452931,0.21731867520255,0.78191744447744,0.894467941451003
0.888508470165543,0.111889309106627,0.072015440633404,0.973728278357885,0.984251760363113,0.864216924452921,0.00117653319612143,0.044993363074027,0.460393144243862,0.529222183130914,0.888045792958583
0.108922941337805,0.946461407696479,0.725078254129039,0.184041646504193,0.254125594787765,0.45897360110539,0.856499807861401,0.897649379587383,0.693221052248846,0.985970854112529,0.16498464205768
0.696696854092297,0.0378558589983732,0.655467554744682,0.912836539158016,0.386298003843985,0.995827663211385,0.473098565094406,0.913575001789723,0.53019040712039,0.113115803893306,0.969916432916652
0.051247949214885,0.219735124520375,0.0879343889694428,0.127816214803606,0.167425335754524,0.185364942552405,0.0575421623082366,0.894424728451995,0.971015778535511,0.549026426493074,0.94652633923979
0.934795755990781,0.791569977903855,0.8802361424017,0.117869915860938,0.250686432961957,0.168236148058204,0.56208743905474,0.0378554801089922,0.234825600272743,0.937463827840402,0.119280370539054
0.939889100642758,0.0829428948025452,0.273783268840052,0.170538787847618,0.492587199925329,0.165932274013758,0.884691621611128,0.715398317803629,0.986658299209084,0.978469946103287,0.272821595786372
0.23917403568048,0.70774856148113,0.807322762068361,0.881604348236579,0.00627138024021406,0.427841644264408,0.518137958215666,0.959830454179901,0.846697007422335,0.740990760338609,0.863519938420504
0.986161382026621,0.00229485050367656,0.564122897476773,0.217263100551208,0.229558107510093,0.732852359732497,0.576147409803816,0.0717642340192106,0.00731723292905373,0.362263535535894,0.216145751570002
0.513303354140371,0.831988722098758,0.0985177534149261,0.976794021804235,0.853773705997737,0.554740500695189,0.864637114697834,0.0613798573083477,0.813866291535087,0.289460738996859,0.360828536391491
0.861378724393435,0.177618616238469,0.85236754727026,0.0928397622157354,0.676225179953617,0.113598667494953,0.0469071389193414,0.692659063774045,0.443170698144822,0.959270083152223,0.978526619820041
0.103527705244487,0.703730818693293,0.196344347965205,0.90693990025844,0.936420294828131,0.723731899384875,0.400963287953637,0.707308976271888,0.0603919848753139,0.469450804608641,0.837962119536242
0.960229691857821,0.913406932584476,0.224583317523939,0.143549286451889,0.881839601352112,0.209086654933635,0.485500558019266,0.165492327923421,0.849274334319634,0.867734138917294,0.73635466283944
0.232929860237637,0.00957864837022498,0.703182628906216,0.351703800107352,0.997456105939928,0.902393335324596,0.996200206070207,0.831200628156075,0.477078053936711,0.956385831444641,0.584428251234931
0.407828183078673,0.0230957497877535,0.051160349654383,0.276930000745342,0.841982483609463,0.893641044372343,0.762515622469364,0.233549132687622,0.962448128346005,0.167517231621896,0.435822705996688
0.498803106124396,0.988461583804456,0.831529197368654,0.24264947704738,0.783004287446965,0.692066442858195,0.3645231051679,0.0342599792563124,0.0243766471982235,0.966725992647116,0.96402137414203
0.0481863147369586,0.149750107101281,0.883999946278636,0.0129279213881819,0.222674576306017,0.00154820200870742,0.127695918123936,0.949972749283188,0.0147535062907264,0.336929897241644,0.827777639761916
0.00650768895458897,0.773064113144646,0.202094104773132,0.756861275890842,0.10996087148611,0.0751809616474202,0.101744617346558,0.118945025287685,0.0392671816318761,0.974574179211631,0.91420242790191
0.426522432084312,0.712901323516271,0.732609877345967,0.450631343238056,0.0197944365430158,0.623964771867613,0.805008359803469,0.979738160516135,0.120962262452231,0.179640706409118,0.0439480364375049
0.944008487219689,0.456886959770927,0.105632787958602,0.994313298260095,0.627539322001394,0.363680510192062,0.906280256101745,0.596083970282925,0.896216722365352,0.984659006083966,0.923384330925765
0.420197489795974,0.983533205933054,0.175793125547352,0.330531263316516,0.270285551304114,0.69929420117347,0.00370403439912481,0.0307723714772146,0.608727021797094,0.982453062549466,0.338949421379948
0.362696150310803,0.553423877757741,0.103239661280531,0.045910404699971,0.478136532429489,0.637102479356108,0.0370975852455012,0.755582012855448,0.161694329020684,0.976504237724585,0.97373708928586
0.0784075825457694,0.169297033381881,0.893575622560456,0.179980600507115,0.236773238736787,0.750891432928038,0.162410258829477,0.941170858378173,0.639265393232927,0.866704972651205,0.153261345064384
0.163465977482265,0.711171656721272,0.388382106416393,0.0386570476985071,0.893879281506524,0.00938682529842483,0.918718545285519,0.0510788734228118,0.401748841453809,0.472479601759114,0.998902482400881
0.983936010195757,0.987356678337092,0.395888492387603,0.981938565405435,0.635222671825904,0.954794555998524,0.842253559728269,0.881680295015685,0.256083566832822,0.0929536669654772,0.643831494427868
0.791499300745199,0.0863095756550319,0.937536848280579,0.0360600944998442,0.249967506173416,0.0281019341776846,0.92551598854945,0.0499510475969873,0.41366794880596,0.148027791290078,0.90143758171529
0.262263923643623,0.598483619418112,0.0682012522732839,0.628744314114447,0.45568916356191,0.0195926595007768,0.316436105847242,0.058047064942075,0.468341906705755,0.0225452558114194,0.144848575212527
0.525534218790708,0.537837399017299,0.0542404556425754,0.764704005246749,0.290410513659008,0.931342403640156,0.0241800103592686,0.863920864250394,0.00092385741474571,0.158758503145073,0.173053998891846
0.295022050570114,0.402878294516122,0.367274517975166,0.432030490925536,0.942407857663929,0.0952032985805999,0.145656548008556,0.845066510152537,0.147614569039433,0.41647649331484,0.218795800459338
0.379028154924163,0.150210832107114,0.897849127713125,0.540324548412464,0.887533175578574,0.0332685176137602,0.989277334364597,0.778267439528136,0.862408654780593,0.181978442431428,0.11558936026413
0.259379592455807,0.892803680954967,0.247115329715307,0.986756938976469,0.0248018371354556,0.946829202063964,0.300843331691576,0.0267501735070255,0.505889098613989,0.10697641609062,0.419532487442484
0.9401245814102,0.887942663130816,0.357255187755218,0.599809143222519,0.979439242784283,0.333099732977571,0.184775070836185,0.0787660426530056,0.098137358155218,0.456905281302752,0.21414800220693
0.121968647977337,0.401766849589185,0.751531247969251,0.565731330979615,0.755471940975985,0.1383542215731,0.00634671121952124,0.022343481873977,0.298275828555925,0.240224990022834,0.981508432159317
0.73880308405438,0.937290113694617,0.268930034193909,0.115394229642698,0.0632601683941902,0.134958842641208,0.0340737622400047,0.34437166756019,0.199211329904501,0.305618810503511,0.770066684398334
0.468273685983149,0.541030525334645,0.358900754315546,0.223378994635423,0.0932487466285238,0.91697880622989,0.877597107383772,0.29882982163108,0.811577460694825,0.912785172290751,0.622571824448532
0.00448933296836912,0.212949951378978,0.0497956093150424,0.779186732771341,0.748996160576353,0.0399458670872264,0.899575601512333,0.169054483175278,0.562339506312273,0.946920933770016,0.421029803815763
0.012754979954916,0.955258752661175,0.82261193952756,0.437205272670835,0.821014291884494,0.969606396379531,0.0744346490374301,0.821518297189032,0.118061553043663,0.211913634323282,0.0529974761442281
0.291198965316289,0.0913094555673888,0.803370634166058,0.407063588911551,0.113747092785779,0.012274047077517,0.27823633714579,0.0749502084264532,0.911578098133905,0.885545434388914,0.58047626149084
0.848392595723271,0.158247873642249,0.935414824904874,0.847584185349406,0.976449753931956,0.109558405232965,0.94981569064199,0.356383361601038,0.225331141837523,0.758327601301717,0.515664693997242
0.102072994543705,0.147062580865459,0.485611770525575,0.843326345838141,0.045914089648868,0.0359413737506838,0.861839542750386,0.991530709455838,0.346435780631145,0.0265784621954663,0.824291879040538
0.969362067534239,0.180902484126855,0.58474424078071,0.515374358193367,0.103850842931424,0.123117833739961,0.181933796269586,0.826545098394854,0.713558019644115,0.0222807164036203,0.406850780690438
0.0258584898913978,0.902889927563956,0.262416778823826,0.937951741842553,0.599355111183831,0.942338202630635,0.991731276798528,0.695838556693052,0.034447982654674,0.785880853454582,0.0575144156411989
0.854578760617296,0.53515306016081,0.919524955429952,0.0169398858776549,0.260154469265253,0.780002839657245,0.642918967338046,0.971914516171091,0.0685088739561616,0.968692168283742,0.785042788067367
0.215943485914613,0.23131714168645,0.620242057549767,0.941756598658976,0.917586300692637,0.64294595139625,0.0537556949944701,0.876810355586931,0.904576181326993,0.489933999897912,0.772534350693459
0.0588117153127677,0.362037627843674,0.0424032730417093,0.00920828882546632,0.0757572458474897,0.0987017865560483,0.538347924810951,0.478627931819647,0.0647928857983788,0.561198959012982,0.13510437843157
0.410856539257802,0.897853579630028,0.0180989612266421,0.265612427785527,0.825505997058353,0.88461379379034,0.602360092481249,0.98749091343605,0.747787340746727,0.200883087252732,0.221273567983881
0.568786150849774,0.905466508672689,0.97705241983931,0.319157943309983,0.27450824347965,0.837694083830575,0.220462548930082,0.276220393026597,0.918385997191072,0.317708330902387,0.905720726556028
0.824760632984107,0.690914753979887,0.910469117331668,0.858171464958577,0.637697055795579,0.922973465897376,0.827545776825864,0.104369634539471,0.950024808513699,0.912109224550077,0.0639325365948025
0.908430064537679,0.810231544879498,0.00471164767805021,0.924889997115242,0.0550468468107283,0.818960674866685,0.372565711817588,0.436093715417665,0.195797094186419,0.816875244922703,0.843181468974799
0.493145285926876,0.142827677495079,0.886977693562512,0.8153878117149,0.162519224631251,0.840836648849072,0.0692882695537992,0.267968773804023,0.0353180094028357,0.918361968543031,0.327204795875005
0.0565101121936459,0.993184260291164,0.685282319221296,0.240627871836768,0.773028647669125,0.174761319717509,0.176160522822756,0.278751449762494,0.817158394528669,0.597079587798798,0.0884233850304736
0.272249160106876,0.974658110474702,0.904863214896177,0.945212981220684,0.426588118381333,0.0483965132600861,0.443025254175882,0.624875438891468,0.0321498980763135,0.0529107175767422,0.443961787443841
0.917737746609491,0.120881064803107,0.281058935691835,0.0606775339291198,0.535912111194921,0.860339196622372,0.114799833414727,0.199786217738292,0.844395364101511,0.777583528906689,0.123972779181204
0.348119950928958,0.0671445604215842,0.525385216926807,0.967321671975078,0.085993022643961,0.443440300924703,0.817486944321427,0.292021514126682,0.99624460885243,0.0659891988540767,0.0459485845064046
0.755453793174238,0.0103205681673717,0.161214641722036,0.0426221663650358,0.647457724602427,0.149993967887713,0.664576679724851,0.132196212725248,0.0289830311498372,0.872583624825929,0.956170972380205
0.896009527110145,0.587290887275594,0.547874671068857,0.948800003086799,0.818570598762017,0.0796514500363265,0.389388385253842,0.14246825939219,0.987832803252386,0.0110524302534759,0.883967989145895
0.131704218061059,0.055670737431501,0.828925969974953,0.111995146188419,0.801701655308134,0.0459692748903763,0.712737325409544,0.901650556310779,0.969009414889733,0.944377803783864,0.933038898521336
0.99937994680251,0.854669097155565,0.926865702466457,0.0780359403189504,0.760671782902791,0.467004011926474,0.900180929608177,0.575379470606567,0.465823418573709,0.195810651589418,0.00386215427599379
0.747406855767476,0.0487144249060657,0.083476185327745,0.928369921034318,0.633646546085365,0.488667447243934,0.712209920093301,0.954490603467566,0.131562435891246,0.69761195180763,0.0337242185464129
0.612772347684368,0.829714566930197,0.102001231000177,0.291320830865297,0.0425578291650163,0.0312068300216924,0.935331400060677,0.857975473727565,0.982089690456633,0.264397517035832,0.958234504207503
0.0353538113110698,0.908003994123428,0.0568632310576504,0.958616578672081,0.923501703248476,0.928025133335032,0.63975832155149,0.271718593934202,0.890675260401913,0.947832987657166,0.931285720715532
0.966588128138683,0.868313982453547,0.717425775993615,0.90382587579661,0.0297615635348484,0.0813868069532327,0.14375328311522,0.561496272226213,0.698127315051388,0.925793302441598,0.186851316867396
0.00887396543577779,0.249535700180568,0.603443523526075,0.19180042518361,0.554060794805409,0.906781302915188,0.654582936610677,0.508552359447931,0.14215440760192,0.153883529509767,0.70965210993425
